module terraform-provider-pterodactyl

go 1.17

require (
	github.com/hashicorp/terraform-plugin-sdk/v2 v2.8.0
	github.com/vicanso/go-axios v1.3.2
)

require (
	github.com/agext/levenshtein v1.2.2 // indirect
	github.com/andybalholm/brotli v1.0.3 // indirect
	github.com/apparentlymart/go-textseg v1.0.0 // indirect
	github.com/apparentlymart/go-textseg/v13 v13.0.0 // indirect
	github.com/fatih/color v1.7.0 // indirect
	github.com/golang/protobuf v1.4.2 // indirect
	github.com/hashicorp/errwrap v1.0.0 // indirect
	github.com/hashicorp/go-cty v1.4.1-0.20200414143053-d3edf31b6320 // indirect
	github.com/hashicorp/go-hclog v0.15.0 // indirect
	github.com/hashicorp/go-multierror v1.0.0 // indirect
	github.com/hashicorp/go-plugin v1.4.1 // indirect
	github.com/hashicorp/go-uuid v1.0.1 // indirect
	github.com/hashicorp/go-version v1.3.0 // indirect
	github.com/hashicorp/hcl/v2 v2.3.0 // indirect
	github.com/hashicorp/terraform-plugin-go v0.4.0 // indirect
	github.com/hashicorp/yamux v0.0.0-20181012175058-2f1d1f20f75d // indirect
	github.com/mattn/go-colorable v0.1.4 // indirect
	github.com/mattn/go-isatty v0.0.10 // indirect
	github.com/mitchellh/copystructure v1.2.0 // indirect
	github.com/mitchellh/go-testing-interface v1.0.4 // indirect
	github.com/mitchellh/go-wordwrap v1.0.0 // indirect
	github.com/mitchellh/mapstructure v1.1.2 // indirect
	github.com/mitchellh/reflectwalk v1.0.2 // indirect
	github.com/oklog/run v1.0.0 // indirect
	github.com/vicanso/http-trace v1.0.5 // indirect
	github.com/vmihailenco/msgpack v4.0.4+incompatible // indirect
	github.com/zclconf/go-cty v1.8.4 // indirect
	golang.org/x/net v0.0.0-20210326060303-6b1517762897 // indirect
	golang.org/x/sys v0.0.0-20210502180810-71e4cd670f79 // indirect
	golang.org/x/text v0.3.5 // indirect
	google.golang.org/appengine v1.6.6 // indirect
	google.golang.org/genproto v0.0.0-20200711021454-869866162049 // indirect
	google.golang.org/grpc v1.32.0 // indirect
	google.golang.org/protobuf v1.25.0 // indirect
)
